Analysis & Synthesis report for UART
Mon Nov 18 00:28:41 2019
Quartus Prime Version 18.1.0 Build 625 09/12/2018 SJ Lite Edition


---------------------
; Table of Contents ;
---------------------
  1. Legal Notice
  2. Analysis & Synthesis Summary
  3. Analysis & Synthesis Settings
  4. Parallel Compilation
  5. Analysis & Synthesis Source Files Read
  6. Analysis & Synthesis Resource Usage Summary
  7. Analysis & Synthesis Resource Utilization by Entity
  8. State Machine - |UART_TL|UART_Tx:UART_Tx|Tx_STATE_MACHINE:TX_MACHINE|current_state
  9. State Machine - |UART_TL|UART_Tx:UART_Tx|Tx_STATE_MACHINE:TX_MACHINE|State
 10. State Machine - |UART_TL|ONE_SHOT:Tx_Transmit_One_Shot|states
 11. Registers Protected by Synthesis
 12. User-Specified and Inferred Latches
 13. Registers Removed During Synthesis
 14. General Register Statistics
 15. Multiplexer Restructuring Statistics (Restructuring Performed)
 16. Source assignments for Top-level Entity: |UART_TL
 17. Source assignments for UART_Rx:UART_Rx
 18. Parameter Settings for User Entity Instance: Top-level Entity: |UART_TL
 19. Parameter Settings for User Entity Instance: UART_Rx:UART_Rx
 20. Parameter Settings for User Entity Instance: UART_Tx:UART_Tx
 21. Parameter Settings for User Entity Instance: UART_Tx:UART_Tx|piso_msb:TXDATA
 22. Parameter Settings for User Entity Instance: UART_Tx:UART_Tx|Tx_STATE_MACHINE:TX_MACHINE
 23. Parameter Settings for User Entity Instance: UART_Tx:UART_Tx|counter_baudrate:Counter_Baud
 24. Parameter Settings for User Entity Instance: UART_Tx:UART_Tx|counter_baudrate:Counter_Bits
 25. Port Connectivity Checks: "UART_Tx:UART_Tx|Mux_3_to_1:MUXTransmiter"
 26. Port Connectivity Checks: "ONE_SHOT:Tx_Transmit_One_Shot"
 27. Post-Synthesis Netlist Statistics for Top Partition
 28. Elapsed Time Per Partition
 29. Analysis & Synthesis Messages
 30. Analysis & Synthesis Suppressed Messages



----------------
; Legal Notice ;
----------------
Copyright (C) 2018  Intel Corporation. All rights reserved.
Your use of Intel Corporation's design tools, logic functions 
and other software and tools, and its AMPP partner logic 
functions, and any output files from any of the foregoing 
(including device programming or simulation files), and any 
associated documentation or information are expressly subject 
to the terms and conditions of the Intel Program License 
Subscription Agreement, the Intel Quartus Prime License Agreement,
the Intel FPGA IP License Agreement, or other applicable license
agreement, including, without limitation, that your use is for
the sole purpose of programming logic devices manufactured by
Intel and sold by Intel or its authorized distributors.  Please
refer to the applicable agreement for further details.



+----------------------------------------------------------------------------------+
; Analysis & Synthesis Summary                                                     ;
+------------------------------------+---------------------------------------------+
; Analysis & Synthesis Status        ; Successful - Mon Nov 18 00:28:40 2019       ;
; Quartus Prime Version              ; 18.1.0 Build 625 09/12/2018 SJ Lite Edition ;
; Revision Name                      ; UART                                        ;
; Top-level Entity Name              ; UART_TL                                     ;
; Family                             ; Cyclone IV E                                ;
; Total logic elements               ; 108                                         ;
;     Total combinational functions  ; 102                                         ;
;     Dedicated logic registers      ; 54                                          ;
; Total registers                    ; 54                                          ;
; Total pins                         ; 25                                          ;
; Total virtual pins                 ; 0                                           ;
; Total memory bits                  ; 0                                           ;
; Embedded Multiplier 9-bit elements ; 0                                           ;
; Total PLLs                         ; 0                                           ;
+------------------------------------+---------------------------------------------+


+------------------------------------------------------------------------------------------------------------+
; Analysis & Synthesis Settings                                                                              ;
+------------------------------------------------------------------+--------------------+--------------------+
; Option                                                           ; Setting            ; Default Value      ;
+------------------------------------------------------------------+--------------------+--------------------+
; Device                                                           ; EP4CE115F29C7      ;                    ;
; Top-level entity name                                            ; UART_TL            ; UART               ;
; Family name                                                      ; Cyclone IV E       ; Cyclone V          ;
; Use smart compilation                                            ; Off                ; Off                ;
; Enable parallel Assembler and Timing Analyzer during compilation ; On                 ; On                 ;
; Enable compact report table                                      ; Off                ; Off                ;
; Restructure Multiplexers                                         ; Auto               ; Auto               ;
; Create Debugging Nodes for IP Cores                              ; Off                ; Off                ;
; Preserve fewer node names                                        ; On                 ; On                 ;
; Intel FPGA IP Evaluation Mode                                    ; Enable             ; Enable             ;
; Verilog Version                                                  ; Verilog_2001       ; Verilog_2001       ;
; VHDL Version                                                     ; VHDL_1993          ; VHDL_1993          ;
; State Machine Processing                                         ; Auto               ; Auto               ;
; Safe State Machine                                               ; Off                ; Off                ;
; Extract Verilog State Machines                                   ; On                 ; On                 ;
; Extract VHDL State Machines                                      ; On                 ; On                 ;
; Ignore Verilog initial constructs                                ; Off                ; Off                ;
; Iteration limit for constant Verilog loops                       ; 5000               ; 5000               ;
; Iteration limit for non-constant Verilog loops                   ; 250                ; 250                ;
; Add Pass-Through Logic to Inferred RAMs                          ; On                 ; On                 ;
; Infer RAMs from Raw Logic                                        ; On                 ; On                 ;
; Parallel Synthesis                                               ; On                 ; On                 ;
; DSP Block Balancing                                              ; Auto               ; Auto               ;
; NOT Gate Push-Back                                               ; On                 ; On                 ;
; Power-Up Don't Care                                              ; On                 ; On                 ;
; Remove Redundant Logic Cells                                     ; Off                ; Off                ;
; Remove Duplicate Registers                                       ; On                 ; On                 ;
; Ignore CARRY Buffers                                             ; Off                ; Off                ;
; Ignore CASCADE Buffers                                           ; Off                ; Off                ;
; Ignore GLOBAL Buffers                                            ; Off                ; Off                ;
; Ignore ROW GLOBAL Buffers                                        ; Off                ; Off                ;
; Ignore LCELL Buffers                                             ; Off                ; Off                ;
; Ignore SOFT Buffers                                              ; On                 ; On                 ;
; Limit AHDL Integers to 32 Bits                                   ; Off                ; Off                ;
; Optimization Technique                                           ; Balanced           ; Balanced           ;
; Carry Chain Length                                               ; 70                 ; 70                 ;
; Auto Carry Chains                                                ; On                 ; On                 ;
; Auto Open-Drain Pins                                             ; On                 ; On                 ;
; Perform WYSIWYG Primitive Resynthesis                            ; Off                ; Off                ;
; Auto ROM Replacement                                             ; On                 ; On                 ;
; Auto RAM Replacement                                             ; On                 ; On                 ;
; Auto DSP Block Replacement                                       ; On                 ; On                 ;
; Auto Shift Register Replacement                                  ; Auto               ; Auto               ;
; Allow Shift Register Merging across Hierarchies                  ; Auto               ; Auto               ;
; Auto Clock Enable Replacement                                    ; On                 ; On                 ;
; Strict RAM Replacement                                           ; Off                ; Off                ;
; Allow Synchronous Control Signals                                ; On                 ; On                 ;
; Force Use of Synchronous Clear Signals                           ; Off                ; Off                ;
; Auto RAM Block Balancing                                         ; On                 ; On                 ;
; Auto RAM to Logic Cell Conversion                                ; Off                ; Off                ;
; Auto Resource Sharing                                            ; Off                ; Off                ;
; Allow Any RAM Size For Recognition                               ; Off                ; Off                ;
; Allow Any ROM Size For Recognition                               ; Off                ; Off                ;
; Allow Any Shift Register Size For Recognition                    ; Off                ; Off                ;
; Use LogicLock Constraints during Resource Balancing              ; On                 ; On                 ;
; Ignore translate_off and synthesis_off directives                ; Off                ; Off                ;
; Timing-Driven Synthesis                                          ; On                 ; On                 ;
; Report Parameter Settings                                        ; On                 ; On                 ;
; Report Source Assignments                                        ; On                 ; On                 ;
; Report Connectivity Checks                                       ; On                 ; On                 ;
; Ignore Maximum Fan-Out Assignments                               ; Off                ; Off                ;
; Synchronization Register Chain Length                            ; 2                  ; 2                  ;
; Power Optimization During Synthesis                              ; Normal compilation ; Normal compilation ;
; HDL message level                                                ; Level2             ; Level2             ;
; Suppress Register Optimization Related Messages                  ; Off                ; Off                ;
; Number of Removed Registers Reported in Synthesis Report         ; 5000               ; 5000               ;
; Number of Swept Nodes Reported in Synthesis Report               ; 5000               ; 5000               ;
; Number of Inverted Registers Reported in Synthesis Report        ; 100                ; 100                ;
; Clock MUX Protection                                             ; On                 ; On                 ;
; Auto Gated Clock Conversion                                      ; Off                ; Off                ;
; Block Design Naming                                              ; Auto               ; Auto               ;
; SDC constraint protection                                        ; Off                ; Off                ;
; Synthesis Effort                                                 ; Auto               ; Auto               ;
; Shift Register Replacement - Allow Asynchronous Clear Signal     ; On                 ; On                 ;
; Pre-Mapping Resynthesis Optimization                             ; Off                ; Off                ;
; Analysis & Synthesis Message Level                               ; Medium             ; Medium             ;
; Disable Register Merging Across Hierarchies                      ; Auto               ; Auto               ;
; Resource Aware Inference For Block RAM                           ; On                 ; On                 ;
+------------------------------------------------------------------+--------------------+--------------------+


+------------------------------------------+
; Parallel Compilation                     ;
+----------------------------+-------------+
; Processors                 ; Number      ;
+----------------------------+-------------+
; Number detected on machine ; 8           ;
; Maximum allowed            ; 4           ;
;                            ;             ;
; Average used               ; 1.00        ;
; Maximum used               ; 4           ;
;                            ;             ;
; Usage by Processor         ; % Time Used ;
;     Processor 1            ; 100.0%      ;
;     Processors 2-4         ;   0.0%      ;
+----------------------------+-------------+


+--------------------------------------------------------------------------------------------------------------------------------------------+
; Analysis & Synthesis Source Files Read                                                                                                     ;
+----------------------------------+-----------------+-----------------------------+-----------------------------------------------+---------+
; File Name with User-Entered Path ; Used in Netlist ; File Type                   ; File Name with Absolute Path                  ; Library ;
+----------------------------------+-----------------+-----------------------------+-----------------------------------------------+---------+
; ../UART_Tx.v                     ; yes             ; User Verilog HDL File       ; C:/Iteso_mario/UART/TX/UART_Tx.v              ;         ;
; ../UART_TL.v                     ; yes             ; User Verilog HDL File       ; C:/Iteso_mario/UART/TX/UART_TL.v              ;         ;
; ../UART_Rx.v                     ; yes             ; User Verilog HDL File       ; C:/Iteso_mario/UART/TX/UART_Rx.v              ;         ;
; ../Tx_STATE_MACHINE.v            ; yes             ; User Verilog HDL File       ; C:/Iteso_mario/UART/TX/Tx_STATE_MACHINE.v     ;         ;
; ../piso_msb.v                    ; yes             ; User Verilog HDL File       ; C:/Iteso_mario/UART/TX/piso_msb.v             ;         ;
; ../ONE_SHOT.v                    ; yes             ; User Verilog HDL File       ; C:/Iteso_mario/UART/TX/ONE_SHOT.v             ;         ;
; ../Mux_3_to_1.v                  ; yes             ; User Verilog HDL File       ; C:/Iteso_mario/UART/TX/Mux_3_to_1.v           ;         ;
; ../counter_baudrate.v            ; yes             ; User Verilog HDL File       ; C:/Iteso_mario/UART/TX/counter_baudrate.v     ;         ;
; ../And_Module.v                  ; yes             ; User Verilog HDL File       ; C:/Iteso_mario/UART/TX/And_Module.v           ;         ;
; PLL10M_bb.v                      ; yes             ; User Wizard-Generated File  ; C:/Iteso_mario/UART/TX/Practica_3/PLL10M_bb.v ;         ;
+----------------------------------+-----------------+-----------------------------+-----------------------------------------------+---------+


+-----------------------------------------------------+
; Analysis & Synthesis Resource Usage Summary         ;
+---------------------------------------------+-------+
; Resource                                    ; Usage ;
+---------------------------------------------+-------+
; Estimated Total logic elements              ; 108   ;
;                                             ;       ;
; Total combinational functions               ; 102   ;
; Logic element usage by number of LUT inputs ;       ;
;     -- 4 input functions                    ; 52    ;
;     -- 3 input functions                    ; 24    ;
;     -- <=2 input functions                  ; 26    ;
;                                             ;       ;
; Logic elements by mode                      ;       ;
;     -- normal mode                          ; 89    ;
;     -- arithmetic mode                      ; 13    ;
;                                             ;       ;
; Total registers                             ; 54    ;
;     -- Dedicated logic registers            ; 54    ;
;     -- I/O registers                        ; 0     ;
;                                             ;       ;
; I/O pins                                    ; 25    ;
;                                             ;       ;
; Embedded Multiplier 9-bit elements          ; 0     ;
;                                             ;       ;
; Maximum fan-out node                        ; clk   ;
; Maximum fan-out                             ; 54    ;
; Total fan-out                               ; 542   ;
; Average fan-out                             ; 2.63  ;
+---------------------------------------------+-------+


+-------------------------------------------------------------------------------------------------------------------------------------------------------------------------------------------------------------------------------------------------------------+
; Analysis & Synthesis Resource Utilization by Entity                                                                                                                                                                                                         ;
+---------------------------------------+---------------------+---------------------------+-------------+--------------+---------+-----------+------+--------------+--------------------------------------------------------+------------------+--------------+
; Compilation Hierarchy Node            ; Combinational ALUTs ; Dedicated Logic Registers ; Memory Bits ; DSP Elements ; DSP 9x9 ; DSP 18x18 ; Pins ; Virtual Pins ; Full Hierarchy Name                                    ; Entity Name      ; Library Name ;
+---------------------------------------+---------------------+---------------------------+-------------+--------------+---------+-----------+------+--------------+--------------------------------------------------------+------------------+--------------+
; |UART_TL                              ; 102 (1)             ; 54 (0)                    ; 0           ; 0            ; 0       ; 0         ; 25   ; 0            ; |UART_TL                                               ; UART_TL          ; work         ;
;    |UART_Rx:UART_Rx|                  ; 57 (57)             ; 25 (25)                   ; 0           ; 0            ; 0       ; 0         ; 0    ; 0            ; |UART_TL|UART_Rx:UART_Rx                               ; UART_Rx          ; work         ;
;    |UART_Tx:UART_Tx|                  ; 44 (0)              ; 29 (0)                    ; 0           ; 0            ; 0       ; 0         ; 0    ; 0            ; |UART_TL|UART_Tx:UART_Tx                               ; UART_Tx          ; work         ;
;       |And_Module:ANd_to_Bit_COunter| ; 1 (1)               ; 0 (0)                     ; 0           ; 0            ; 0       ; 0         ; 0    ; 0            ; |UART_TL|UART_Tx:UART_Tx|And_Module:ANd_to_Bit_COunter ; And_Module       ; work         ;
;       |Mux_3_to_1:MUXTransmiter|      ; 3 (3)               ; 0 (0)                     ; 0           ; 0            ; 0       ; 0         ; 0    ; 0            ; |UART_TL|UART_Tx:UART_Tx|Mux_3_to_1:MUXTransmiter      ; Mux_3_to_1       ; work         ;
;       |Tx_STATE_MACHINE:TX_MACHINE|   ; 8 (8)               ; 11 (11)                   ; 0           ; 0            ; 0       ; 0         ; 0    ; 0            ; |UART_TL|UART_Tx:UART_Tx|Tx_STATE_MACHINE:TX_MACHINE   ; Tx_STATE_MACHINE ; work         ;
;       |counter_baudrate:Counter_Baud| ; 10 (10)             ; 7 (7)                     ; 0           ; 0            ; 0       ; 0         ; 0    ; 0            ; |UART_TL|UART_Tx:UART_Tx|counter_baudrate:Counter_Baud ; counter_baudrate ; work         ;
;       |counter_baudrate:Counter_Bits| ; 3 (3)               ; 3 (3)                     ; 0           ; 0            ; 0       ; 0         ; 0    ; 0            ; |UART_TL|UART_Tx:UART_Tx|counter_baudrate:Counter_Bits ; counter_baudrate ; work         ;
;       |piso_msb:TXDATA|               ; 19 (19)             ; 8 (8)                     ; 0           ; 0            ; 0       ; 0         ; 0    ; 0            ; |UART_TL|UART_Tx:UART_Tx|piso_msb:TXDATA               ; piso_msb         ; work         ;
+---------------------------------------+---------------------+---------------------------+-------------+--------------+---------+-----------+------+--------------+--------------------------------------------------------+------------------+--------------+
Note: For table entries with two numbers listed, the numbers in parentheses indicate the number of resources of the given type used by the specific entity alone. The numbers listed outside of parentheses indicate the total resources of the given type used by the specific entity and all of its sub-entities in the hierarchy.


Encoding Type:  One-Hot
+----------------------------------------------------------------------------------------------------------------------------------------------------------------------------------------------+
; State Machine - |UART_TL|UART_Tx:UART_Tx|Tx_STATE_MACHINE:TX_MACHINE|current_state                                                                                                           ;
+-----------------------------+-----------------------+---------------------------+-----------------------------+----------------------------+----------------------------+--------------------+
; Name                        ; current_state.CLEANUP ; current_state.TX_STOP_BIT ; current_state.TX_PARITY_BIT ; current_state.TX_DATA_BITS ; current_state.Tx_START_BIT ; current_state.IDLE ;
+-----------------------------+-----------------------+---------------------------+-----------------------------+----------------------------+----------------------------+--------------------+
; current_state.IDLE          ; 0                     ; 0                         ; 0                           ; 0                          ; 0                          ; 0                  ;
; current_state.Tx_START_BIT  ; 0                     ; 0                         ; 0                           ; 0                          ; 1                          ; 1                  ;
; current_state.TX_DATA_BITS  ; 0                     ; 0                         ; 0                           ; 1                          ; 0                          ; 1                  ;
; current_state.TX_PARITY_BIT ; 0                     ; 0                         ; 1                           ; 0                          ; 0                          ; 1                  ;
; current_state.TX_STOP_BIT   ; 0                     ; 1                         ; 0                           ; 0                          ; 0                          ; 1                  ;
; current_state.CLEANUP       ; 1                     ; 0                         ; 0                           ; 0                          ; 0                          ; 1                  ;
+-----------------------------+-----------------------+---------------------------+-----------------------------+----------------------------+----------------------------+--------------------+


Encoding Type:  One-Hot
+--------------------------------------------------------------------------------------------------------------------------------------+
; State Machine - |UART_TL|UART_Tx:UART_Tx|Tx_STATE_MACHINE:TX_MACHINE|State                                                           ;
+---------------------+---------------+-------------------+---------------------+--------------------+--------------------+------------+
; Name                ; State.CLEANUP ; State.TX_STOP_BIT ; State.TX_PARITY_BIT ; State.TX_DATA_BITS ; State.Tx_START_BIT ; State.IDLE ;
+---------------------+---------------+-------------------+---------------------+--------------------+--------------------+------------+
; State.IDLE          ; 0             ; 0                 ; 0                   ; 0                  ; 0                  ; 0          ;
; State.Tx_START_BIT  ; 0             ; 0                 ; 0                   ; 0                  ; 1                  ; 1          ;
; State.TX_DATA_BITS  ; 0             ; 0                 ; 0                   ; 1                  ; 0                  ; 1          ;
; State.TX_PARITY_BIT ; 0             ; 0                 ; 1                   ; 0                  ; 0                  ; 1          ;
; State.TX_STOP_BIT   ; 0             ; 1                 ; 0                   ; 0                  ; 0                  ; 1          ;
; State.CLEANUP       ; 1             ; 0                 ; 0                   ; 0                  ; 0                  ; 1          ;
+---------------------+---------------+-------------------+---------------------+--------------------+--------------------+------------+


Encoding Type:  One-Hot
+----------------------------------------------------------------------------------------+
; State Machine - |UART_TL|ONE_SHOT:Tx_Transmit_One_Shot|states                          ;
+--------------------------+----------------+--------------------------+-----------------+
; Name                     ; states.waiting ; states.waiting_stability ; states.shooting ;
+--------------------------+----------------+--------------------------+-----------------+
; states.waiting           ; 0              ; 0                        ; 0               ;
; states.shooting          ; 1              ; 0                        ; 1               ;
; states.waiting_stability ; 1              ; 1                        ; 0               ;
+--------------------------+----------------+--------------------------+-----------------+


+----------------------------------------------------------------------------------------------------------------------------------------------------------+
; Registers Protected by Synthesis                                                                                                                         ;
+------------------------------------------+------------------------------------------------------------------+--------------------------------------------+
; Register Name                            ; Protected by Synthesis Attribute or Preserve Register Assignment ; Not to be Touched by Netlist Optimizations ;
+------------------------------------------+------------------------------------------------------------------+--------------------------------------------+
; UART_Rx:UART_Rx|State[1]                 ; yes                                                              ; yes                                        ;
; UART_Rx:UART_Rx|State[0]                 ; yes                                                              ; yes                                        ;
; UART_Rx:UART_Rx|State[2]                 ; yes                                                              ; yes                                        ;
; UART_Rx:UART_Rx|reg_Bit_Index[0]         ; yes                                                              ; yes                                        ;
; UART_Rx:UART_Rx|reg_Bit_Index[3]         ; yes                                                              ; yes                                        ;
; UART_Rx:UART_Rx|reg_Bit_Index[2]         ; yes                                                              ; yes                                        ;
; UART_Rx:UART_Rx|reg_Bit_Index[1]         ; yes                                                              ; yes                                        ;
; Total number of protected registers is 7 ;                                                                  ;                                            ;
+------------------------------------------+------------------------------------------------------------------+--------------------------------------------+


+---------------------------------------------------------------------------------------------------------------------+
; User-Specified and Inferred Latches                                                                                 ;
+----------------------------------------------------+---------------------------------------+------------------------+
; Latch Name                                         ; Latch Enable Signal                   ; Free of Timing Hazards ;
+----------------------------------------------------+---------------------------------------+------------------------+
; UART_Tx:UART_Tx|piso_msb:TXDATA|rgst_r_nxt[0]      ; UART_Tx:UART_Tx|piso_msb:TXDATA|ff_en ; yes                    ;
; UART_Tx:UART_Tx|piso_msb:TXDATA|rgst_r_nxt[1]      ; UART_Tx:UART_Tx|piso_msb:TXDATA|ff_en ; yes                    ;
; UART_Tx:UART_Tx|piso_msb:TXDATA|rgst_r_nxt[2]      ; UART_Tx:UART_Tx|piso_msb:TXDATA|ff_en ; yes                    ;
; UART_Tx:UART_Tx|piso_msb:TXDATA|rgst_r_nxt[3]      ; UART_Tx:UART_Tx|piso_msb:TXDATA|ff_en ; yes                    ;
; UART_Tx:UART_Tx|piso_msb:TXDATA|rgst_r_nxt[4]      ; UART_Tx:UART_Tx|piso_msb:TXDATA|ff_en ; yes                    ;
; UART_Tx:UART_Tx|piso_msb:TXDATA|rgst_r_nxt[5]      ; UART_Tx:UART_Tx|piso_msb:TXDATA|ff_en ; yes                    ;
; UART_Tx:UART_Tx|piso_msb:TXDATA|rgst_r_nxt[6]      ; UART_Tx:UART_Tx|piso_msb:TXDATA|ff_en ; yes                    ;
; UART_Tx:UART_Tx|piso_msb:TXDATA|rgst_r_nxt[7]      ; UART_Tx:UART_Tx|piso_msb:TXDATA|ff_en ; yes                    ;
; Number of user-specified and inferred latches = 8  ;                                       ;                        ;
+----------------------------------------------------+---------------------------------------+------------------------+
Note: All latches listed above may not be present at the end of synthesis due to various synthesis optimizations.


+--------------------------------------------------------------------------------------------+
; Registers Removed During Synthesis                                                         ;
+-----------------------------------------------------------------------+--------------------+
; Register name                                                         ; Reason for Removal ;
+-----------------------------------------------------------------------+--------------------+
; UART_Tx:UART_Tx|Tx_STATE_MACHINE:TX_MACHINE|current_state.TX_STOP_BIT ; Lost fanout        ;
; UART_Tx:UART_Tx|Tx_STATE_MACHINE:TX_MACHINE|current_state~4           ; Lost fanout        ;
; UART_Tx:UART_Tx|Tx_STATE_MACHINE:TX_MACHINE|current_state~5           ; Lost fanout        ;
; UART_Tx:UART_Tx|Tx_STATE_MACHINE:TX_MACHINE|current_state~6           ; Lost fanout        ;
; UART_Tx:UART_Tx|Tx_STATE_MACHINE:TX_MACHINE|State~4                   ; Lost fanout        ;
; UART_Tx:UART_Tx|Tx_STATE_MACHINE:TX_MACHINE|State~5                   ; Lost fanout        ;
; UART_Tx:UART_Tx|Tx_STATE_MACHINE:TX_MACHINE|State~6                   ; Lost fanout        ;
; ONE_SHOT:Tx_Transmit_One_Shot|states.shooting                         ; Lost fanout        ;
; ONE_SHOT:Tx_Transmit_One_Shot|states.waiting_stability                ; Lost fanout        ;
; ONE_SHOT:Tx_Transmit_One_Shot|states.waiting                          ; Lost fanout        ;
; Total Number of Removed Registers = 10                                ;                    ;
+-----------------------------------------------------------------------+--------------------+


+------------------------------------------------------+
; General Register Statistics                          ;
+----------------------------------------------+-------+
; Statistic                                    ; Value ;
+----------------------------------------------+-------+
; Total registers                              ; 54    ;
; Number of registers using Synchronous Clear  ; 15    ;
; Number of registers using Synchronous Load   ; 0     ;
; Number of registers using Asynchronous Clear ; 32    ;
; Number of registers using Asynchronous Load  ; 0     ;
; Number of registers using Clock Enable       ; 27    ;
; Number of registers using Preset             ; 0     ;
+----------------------------------------------+-------+


+---------------------------------------------------------------------------------------------------------------------------------------------------------+
; Multiplexer Restructuring Statistics (Restructuring Performed)                                                                                          ;
+--------------------+-----------+---------------+----------------------+------------------------+------------+-------------------------------------------+
; Multiplexer Inputs ; Bus Width ; Baseline Area ; Area if Restructured ; Saving if Restructured ; Registered ; Example Multiplexer Output                ;
+--------------------+-----------+---------------+----------------------+------------------------+------------+-------------------------------------------+
; 10:1               ; 4 bits    ; 24 LEs        ; 4 LEs                ; 20 LEs                 ; Yes        ; |UART_TL|UART_Rx:UART_Rx|reg_Bit_Index[0] ;
; 9:1                ; 8 bits    ; 48 LEs        ; 8 LEs                ; 40 LEs                 ; Yes        ; |UART_TL|UART_Rx:UART_Rx|clk_Counter[4]   ;
+--------------------+-----------+---------------+----------------------+------------------------+------------+-------------------------------------------+


+---------------------------------------------------+
; Source assignments for Top-level Entity: |UART_TL ;
+------------------------------+-------+------+-----+
; Assignment                   ; Value ; From ; To  ;
+------------------------------+-------+------+-----+
; IGNORE_LCELL_BUFFERS         ; off   ; -    ; clk ;
; REMOVE_REDUNDANT_LOGIC_CELLS ; off   ; -    ; clk ;
+------------------------------+-------+------+-----+


+-----------------------------------------------------+
; Source assignments for UART_Rx:UART_Rx              ;
+-------------------+-------+------+------------------+
; Assignment        ; Value ; From ; To               ;
+-------------------+-------+------+------------------+
; PRESERVE_REGISTER ; on    ; -    ; reg_Bit_Index[0] ;
; PRESERVE_REGISTER ; on    ; -    ; State[2]         ;
; PRESERVE_REGISTER ; on    ; -    ; State[1]         ;
; PRESERVE_REGISTER ; on    ; -    ; State[0]         ;
; PRESERVE_REGISTER ; on    ; -    ; reg_Bit_Index[3] ;
; PRESERVE_REGISTER ; on    ; -    ; reg_Bit_Index[2] ;
; PRESERVE_REGISTER ; on    ; -    ; reg_Bit_Index[1] ;
+-------------------+-------+------+------------------+


+-------------------------------------------------------------------------+
; Parameter Settings for User Entity Instance: Top-level Entity: |UART_TL ;
+----------------+----------+---------------------------------------------+
; Parameter Name ; Value    ; Type                                        ;
+----------------+----------+---------------------------------------------+
; PLL_CLK        ; 10000000 ; Signed Integer                              ;
; BAUD_RATE      ; 115200   ; Signed Integer                              ;
; CLOCK_PER_BIT  ; 86       ; Signed Integer                              ;
+----------------+----------+---------------------------------------------+
Note: In order to hide this table in the UI and the text report file, please set the "Show Parameter Settings in Synthesis Report" option in "Analysis and Synthesis Settings -> More Settings" to "Off".


+--------------------------------------------------------------+
; Parameter Settings for User Entity Instance: UART_Rx:UART_Rx ;
+----------------+----------+----------------------------------+
; Parameter Name ; Value    ; Type                             ;
+----------------+----------+----------------------------------+
; BAUD_RATE      ; 115200   ; Signed Integer                   ;
; CLK            ; 10000000 ; Signed Integer                   ;
; CLKS_PER_BIT   ; 86       ; Signed Integer                   ;
+----------------+----------+----------------------------------+
Note: In order to hide this table in the UI and the text report file, please set the "Show Parameter Settings in Synthesis Report" option in "Analysis and Synthesis Settings -> More Settings" to "Off".


+--------------------------------------------------------------+
; Parameter Settings for User Entity Instance: UART_Tx:UART_Tx ;
+----------------+----------+----------------------------------+
; Parameter Name ; Value    ; Type                             ;
+----------------+----------+----------------------------------+
; Data_Size      ; 8        ; Signed Integer                   ;
; BAUD_RATE      ; 115200   ; Signed Integer                   ;
; CLK            ; 10000000 ; Signed Integer                   ;
; CLKS_PER_BIT   ; 86       ; Signed Integer                   ;
+----------------+----------+----------------------------------+
Note: In order to hide this table in the UI and the text report file, please set the "Show Parameter Settings in Synthesis Report" option in "Analysis and Synthesis Settings -> More Settings" to "Off".


+------------------------------------------------------------------------------+
; Parameter Settings for User Entity Instance: UART_Tx:UART_Tx|piso_msb:TXDATA ;
+----------------+-------+-----------------------------------------------------+
; Parameter Name ; Value ; Type                                                ;
+----------------+-------+-----------------------------------------------------+
; DW             ; 8     ; Signed Integer                                      ;
; Frame_lenght   ; 11    ; Signed Integer                                      ;
+----------------+-------+-----------------------------------------------------+
Note: In order to hide this table in the UI and the text report file, please set the "Show Parameter Settings in Synthesis Report" option in "Analysis and Synthesis Settings -> More Settings" to "Off".


+------------------------------------------------------------------------------------------+
; Parameter Settings for User Entity Instance: UART_Tx:UART_Tx|Tx_STATE_MACHINE:TX_MACHINE ;
+----------------+----------+--------------------------------------------------------------+
; Parameter Name ; Value    ; Type                                                         ;
+----------------+----------+--------------------------------------------------------------+
; BAUD_RATE      ; 115200   ; Signed Integer                                               ;
; CLK            ; 10000000 ; Signed Integer                                               ;
; CLKS_PER_BIT   ; 86       ; Signed Integer                                               ;
; State_Lenght   ; 3        ; Signed Integer                                               ;
+----------------+----------+--------------------------------------------------------------+
Note: In order to hide this table in the UI and the text report file, please set the "Show Parameter Settings in Synthesis Report" option in "Analysis and Synthesis Settings -> More Settings" to "Off".


+--------------------------------------------------------------------------------------------+
; Parameter Settings for User Entity Instance: UART_Tx:UART_Tx|counter_baudrate:Counter_Baud ;
+----------------+----------+----------------------------------------------------------------+
; Parameter Name ; Value    ; Type                                                           ;
+----------------+----------+----------------------------------------------------------------+
; BAUD_RATE      ; 115200   ; Signed Integer                                                 ;
; CLK            ; 10000000 ; Signed Integer                                                 ;
; MAXCNT         ; 86       ; Signed Integer                                                 ;
; wrd_len        ; 7        ; Signed Integer                                                 ;
+----------------+----------+----------------------------------------------------------------+
Note: In order to hide this table in the UI and the text report file, please set the "Show Parameter Settings in Synthesis Report" option in "Analysis and Synthesis Settings -> More Settings" to "Off".


+--------------------------------------------------------------------------------------------+
; Parameter Settings for User Entity Instance: UART_Tx:UART_Tx|counter_baudrate:Counter_Bits ;
+----------------+----------+----------------------------------------------------------------+
; Parameter Name ; Value    ; Type                                                           ;
+----------------+----------+----------------------------------------------------------------+
; BAUD_RATE      ; 115200   ; Signed Integer                                                 ;
; CLK            ; 10000000 ; Signed Integer                                                 ;
; MAXCNT         ; 8        ; Signed Integer                                                 ;
; wrd_len        ; 3        ; Signed Integer                                                 ;
+----------------+----------+----------------------------------------------------------------+
Note: In order to hide this table in the UI and the text report file, please set the "Show Parameter Settings in Synthesis Report" option in "Analysis and Synthesis Settings -> More Settings" to "Off".


+----------------------------------------------------------------------+
; Port Connectivity Checks: "UART_Tx:UART_Tx|Mux_3_to_1:MUXTransmiter" ;
+------+-------+----------+--------------------------------------------+
; Port ; Type  ; Severity ; Details                                    ;
+------+-------+----------+--------------------------------------------+
; A    ; Input ; Info     ; Stuck at VCC                               ;
; B    ; Input ; Info     ; Stuck at GND                               ;
+------+-------+----------+--------------------------------------------+


+----------------------------------------------------------------------------------------------------------------+
; Port Connectivity Checks: "ONE_SHOT:Tx_Transmit_One_Shot"                                                      ;
+------+--------+----------+-------------------------------------------------------------------------------------+
; Port ; Type   ; Severity ; Details                                                                             ;
+------+--------+----------+-------------------------------------------------------------------------------------+
; shot ; Output ; Info     ; Connected to dangling logic. Logic that only feeds a dangling port will be removed. ;
+------+--------+----------+-------------------------------------------------------------------------------------+


+-----------------------------------------------------+
; Post-Synthesis Netlist Statistics for Top Partition ;
+-----------------------+-----------------------------+
; Type                  ; Count                       ;
+-----------------------+-----------------------------+
; boundary_port         ; 25                          ;
; cycloneiii_ff         ; 54                          ;
;     CLR               ; 17                          ;
;     ENA               ; 4                           ;
;     ENA CLR           ; 8                           ;
;     ENA CLR SCLR      ; 7                           ;
;     ENA SCLR          ; 8                           ;
;     plain             ; 10                          ;
; cycloneiii_lcell_comb ; 103                         ;
;     arith             ; 13                          ;
;         2 data inputs ; 13                          ;
;     normal            ; 90                          ;
;         0 data inputs ; 3                           ;
;         1 data inputs ; 3                           ;
;         2 data inputs ; 8                           ;
;         3 data inputs ; 24                          ;
;         4 data inputs ; 52                          ;
;                       ;                             ;
; Max LUT depth         ; 5.00                        ;
; Average LUT depth     ; 3.05                        ;
+-----------------------+-----------------------------+


+-------------------------------+
; Elapsed Time Per Partition    ;
+----------------+--------------+
; Partition Name ; Elapsed Time ;
+----------------+--------------+
; Top            ; 00:00:03     ;
+----------------+--------------+


+-------------------------------+
; Analysis & Synthesis Messages ;
+-------------------------------+
Info: *******************************************************************
Info: Running Quartus Prime Analysis & Synthesis
    Info: Version 18.1.0 Build 625 09/12/2018 SJ Lite Edition
    Info: Processing started: Mon Nov 18 00:28:11 2019
Info: Command: quartus_map --read_settings_files=on --write_settings_files=off UART -c UART
Warning (18236): Number of processors has not been specified which may cause overloading on shared machines.  Set the global assignment NUM_PARALLEL_PROCESSORS in your QSF to an appropriate value for best performance.
Info (20030): Parallel compilation is enabled and will use 4 of the 4 processors detected
Info (12021): Found 1 design units, including 1 entities, in source file /iteso_mario/uart/tx/uart_tx.v
    Info (12023): Found entity 1: UART_Tx File: C:/Iteso_mario/UART/TX/UART_Tx.v Line: 4
Warning (10090): Verilog HDL syntax warning at UART_TL.v(66): extra block comment delimiter characters /* within block comment File: C:/Iteso_mario/UART/TX/UART_TL.v Line: 66
Info (12021): Found 1 design units, including 1 entities, in source file /iteso_mario/uart/tx/uart_tl.v
    Info (12023): Found entity 1: UART_TL File: C:/Iteso_mario/UART/TX/UART_TL.v Line: 1
Info (12021): Found 1 design units, including 1 entities, in source file /iteso_mario/uart/tx/uart_rx.v
    Info (12023): Found entity 1: UART_Rx File: C:/Iteso_mario/UART/TX/UART_Rx.v Line: 3
Info (12021): Found 1 design units, including 1 entities, in source file /iteso_mario/uart/tx/tx_state_machine.v
    Info (12023): Found entity 1: Tx_STATE_MACHINE File: C:/Iteso_mario/UART/TX/Tx_STATE_MACHINE.v Line: 3
Info (12021): Found 1 design units, including 1 entities, in source file /iteso_mario/uart/tx/sipo.v
    Info (12023): Found entity 1: sipo File: C:/Iteso_mario/UART/TX/sipo.v Line: 2
Info (12021): Found 1 design units, including 1 entities, in source file /iteso_mario/uart/tx/piso_msb.v
    Info (12023): Found entity 1: piso_msb File: C:/Iteso_mario/UART/TX/piso_msb.v Line: 3
Info (12021): Found 1 design units, including 1 entities, in source file /iteso_mario/uart/tx/one_shot.v
    Info (12023): Found entity 1: ONE_SHOT File: C:/Iteso_mario/UART/TX/ONE_SHOT.v Line: 7
Info (12021): Found 1 design units, including 1 entities, in source file /iteso_mario/uart/tx/mux_3_to_1.v
    Info (12023): Found entity 1: Mux_3_to_1 File: C:/Iteso_mario/UART/TX/Mux_3_to_1.v Line: 4
Info (12021): Found 1 design units, including 1 entities, in source file /iteso_mario/uart/tx/counter_baudrate.v
    Info (12023): Found entity 1: counter_baudrate File: C:/Iteso_mario/UART/TX/counter_baudrate.v Line: 5
Info (12021): Found 1 design units, including 1 entities, in source file /iteso_mario/uart/tx/and_module.v
    Info (12023): Found entity 1: And_Module File: C:/Iteso_mario/UART/TX/And_Module.v Line: 1
Info (12021): Found 1 design units, including 1 entities, in source file pll10m_bb.v
    Info (12023): Found entity 1: PLL10M File: C:/Iteso_mario/UART/TX/Practica_3/PLL10M_bb.v Line: 34
Info (12021): Found 1 design units, including 1 entities, in source file pll10m.v
    Info (12023): Found entity 1: PLL_10M File: C:/Iteso_mario/UART/TX/Practica_3/PLL10M.v Line: 40
Info (12021): Found 1 design units, including 1 entities, in source file uart_tb.v
    Info (12023): Found entity 1: UART_TB File: C:/Iteso_mario/UART/TX/Practica_3/UART_tb.v Line: 4
Info (12127): Elaborating entity "UART_TL" for the top level hierarchy
Warning (10034): Output port "Tx_Active" at UART_TL.v(20) has no driver File: C:/Iteso_mario/UART/TX/UART_TL.v Line: 20
Warning (10034): Output port "Tx_Done_flag" at UART_TL.v(23) has no driver File: C:/Iteso_mario/UART/TX/UART_TL.v Line: 23
Info (12128): Elaborating entity "PLL10M" for hierarchy "PLL10M:PLL_UART_inst" File: C:/Iteso_mario/UART/TX/UART_TL.v Line: 35
Warning (10034): Output port "c0" at PLL10M_bb.v(39) has no driver File: C:/Iteso_mario/UART/TX/Practica_3/PLL10M_bb.v Line: 39
Info (12128): Elaborating entity "ONE_SHOT" for hierarchy "ONE_SHOT:Tx_Transmit_One_Shot" File: C:/Iteso_mario/UART/TX/UART_TL.v Line: 54
Info (12128): Elaborating entity "UART_Rx" for hierarchy "UART_Rx:UART_Rx" File: C:/Iteso_mario/UART/TX/UART_TL.v Line: 87
Info (12128): Elaborating entity "UART_Tx" for hierarchy "UART_Tx:UART_Tx" File: C:/Iteso_mario/UART/TX/UART_TL.v Line: 105
Info (12128): Elaborating entity "piso_msb" for hierarchy "UART_Tx:UART_Tx|piso_msb:TXDATA" File: C:/Iteso_mario/UART/TX/UART_Tx.v Line: 42
Warning (10240): Verilog HDL Always Construct warning at piso_msb.v(23): inferring latch(es) for variable "rgst_r_nxt", which holds its previous value in one or more paths through the always construct File: C:/Iteso_mario/UART/TX/piso_msb.v Line: 23
Info (10041): Inferred latch for "rgst_r_nxt[0]" at piso_msb.v(28) File: C:/Iteso_mario/UART/TX/piso_msb.v Line: 28
Info (10041): Inferred latch for "rgst_r_nxt[1]" at piso_msb.v(28) File: C:/Iteso_mario/UART/TX/piso_msb.v Line: 28
Info (10041): Inferred latch for "rgst_r_nxt[2]" at piso_msb.v(28) File: C:/Iteso_mario/UART/TX/piso_msb.v Line: 28
Info (10041): Inferred latch for "rgst_r_nxt[3]" at piso_msb.v(28) File: C:/Iteso_mario/UART/TX/piso_msb.v Line: 28
Info (10041): Inferred latch for "rgst_r_nxt[4]" at piso_msb.v(28) File: C:/Iteso_mario/UART/TX/piso_msb.v Line: 28
Info (10041): Inferred latch for "rgst_r_nxt[5]" at piso_msb.v(28) File: C:/Iteso_mario/UART/TX/piso_msb.v Line: 28
Info (10041): Inferred latch for "rgst_r_nxt[6]" at piso_msb.v(28) File: C:/Iteso_mario/UART/TX/piso_msb.v Line: 28
Info (10041): Inferred latch for "rgst_r_nxt[7]" at piso_msb.v(28) File: C:/Iteso_mario/UART/TX/piso_msb.v Line: 28
Info (12128): Elaborating entity "Tx_STATE_MACHINE" for hierarchy "UART_Tx:UART_Tx|Tx_STATE_MACHINE:TX_MACHINE" File: C:/Iteso_mario/UART/TX/UART_Tx.v Line: 60
Info (12128): Elaborating entity "Mux_3_to_1" for hierarchy "UART_Tx:UART_Tx|Mux_3_to_1:MUXTransmiter" File: C:/Iteso_mario/UART/TX/UART_Tx.v Line: 70
Info (12128): Elaborating entity "counter_baudrate" for hierarchy "UART_Tx:UART_Tx|counter_baudrate:Counter_Baud" File: C:/Iteso_mario/UART/TX/UART_Tx.v Line: 89
Info (12128): Elaborating entity "counter_baudrate" for hierarchy "UART_Tx:UART_Tx|counter_baudrate:Counter_Bits" File: C:/Iteso_mario/UART/TX/UART_Tx.v Line: 108
Info (12128): Elaborating entity "And_Module" for hierarchy "UART_Tx:UART_Tx|And_Module:ANd_to_Shift" File: C:/Iteso_mario/UART/TX/UART_Tx.v Line: 115
Warning (13012): Latch UART_Tx:UART_Tx|piso_msb:TXDATA|rgst_r_nxt[0] has unsafe behavior File: C:/Iteso_mario/UART/TX/piso_msb.v Line: 28
    Warning (13013): Ports D and ENA on the latch are fed by the same signal UART_Tx:UART_Tx|And_Module:ANd_to_Bit_COunter|Out File: C:/Iteso_mario/UART/TX/And_Module.v Line: 4
Warning (13012): Latch UART_Tx:UART_Tx|piso_msb:TXDATA|rgst_r_nxt[1] has unsafe behavior File: C:/Iteso_mario/UART/TX/piso_msb.v Line: 28
    Warning (13013): Ports D and ENA on the latch are fed by the same signal UART_Tx:UART_Tx|And_Module:ANd_to_Bit_COunter|Out File: C:/Iteso_mario/UART/TX/And_Module.v Line: 4
Warning (13012): Latch UART_Tx:UART_Tx|piso_msb:TXDATA|rgst_r_nxt[2] has unsafe behavior File: C:/Iteso_mario/UART/TX/piso_msb.v Line: 28
    Warning (13013): Ports D and ENA on the latch are fed by the same signal UART_Tx:UART_Tx|And_Module:ANd_to_Bit_COunter|Out File: C:/Iteso_mario/UART/TX/And_Module.v Line: 4
Warning (13012): Latch UART_Tx:UART_Tx|piso_msb:TXDATA|rgst_r_nxt[3] has unsafe behavior File: C:/Iteso_mario/UART/TX/piso_msb.v Line: 28
    Warning (13013): Ports D and ENA on the latch are fed by the same signal UART_Tx:UART_Tx|And_Module:ANd_to_Bit_COunter|Out File: C:/Iteso_mario/UART/TX/And_Module.v Line: 4
Warning (13012): Latch UART_Tx:UART_Tx|piso_msb:TXDATA|rgst_r_nxt[4] has unsafe behavior File: C:/Iteso_mario/UART/TX/piso_msb.v Line: 28
    Warning (13013): Ports D and ENA on the latch are fed by the same signal UART_Tx:UART_Tx|And_Module:ANd_to_Bit_COunter|Out File: C:/Iteso_mario/UART/TX/And_Module.v Line: 4
Warning (13012): Latch UART_Tx:UART_Tx|piso_msb:TXDATA|rgst_r_nxt[5] has unsafe behavior File: C:/Iteso_mario/UART/TX/piso_msb.v Line: 28
    Warning (13013): Ports D and ENA on the latch are fed by the same signal UART_Tx:UART_Tx|And_Module:ANd_to_Bit_COunter|Out File: C:/Iteso_mario/UART/TX/And_Module.v Line: 4
Warning (13012): Latch UART_Tx:UART_Tx|piso_msb:TXDATA|rgst_r_nxt[6] has unsafe behavior File: C:/Iteso_mario/UART/TX/piso_msb.v Line: 28
    Warning (13013): Ports D and ENA on the latch are fed by the same signal UART_Tx:UART_Tx|And_Module:ANd_to_Bit_COunter|Out File: C:/Iteso_mario/UART/TX/And_Module.v Line: 4
Warning (13012): Latch UART_Tx:UART_Tx|piso_msb:TXDATA|rgst_r_nxt[7] has unsafe behavior File: C:/Iteso_mario/UART/TX/piso_msb.v Line: 28
    Warning (13013): Ports D and ENA on the latch are fed by the same signal UART_Tx:UART_Tx|And_Module:ANd_to_Bit_COunter|Out File: C:/Iteso_mario/UART/TX/And_Module.v Line: 4
Warning (13024): Output pins are stuck at VCC or GND
    Warning (13410): Pin "Tx_Active" is stuck at GND File: C:/Iteso_mario/UART/TX/UART_TL.v Line: 20
    Warning (13410): Pin "Tx_Done_flag" is stuck at GND File: C:/Iteso_mario/UART/TX/UART_TL.v Line: 23
Info (286030): Timing-Driven Synthesis is running
Info (17049): 10 registers lost all their fanouts during netlist optimizations.
Info (17016): Found the following redundant logic cells in design
    Info (17048): Logic cell "clk" File: C:/Iteso_mario/UART/TX/UART_TL.v Line: 25
Info (144001): Generated suppressed messages file C:/Iteso_mario/UART/TX/Practica_3/output_files/UART.map.smsg
Info (16010): Generating hard_block partition "hard_block:auto_generated_inst"
    Info (16011): Adding 0 node(s), including 0 DDIO, 0 PLL, 0 transceiver and 0 LCELL
Warning (21074): Design contains 2 input pin(s) that do not drive logic
    Warning (15610): No output dependent on input pin "fpga_clk" File: C:/Iteso_mario/UART/TX/UART_TL.v Line: 10
    Warning (15610): No output dependent on input pin "Tx_Transmit" File: C:/Iteso_mario/UART/TX/UART_TL.v Line: 14
Info (21057): Implemented 141 device resources after synthesis - the final resource count might be different
    Info (21058): Implemented 13 input pins
    Info (21059): Implemented 12 output pins
    Info (21061): Implemented 116 logic cells
Info: Quartus Prime Analysis & Synthesis was successful. 0 errors, 28 warnings
    Info: Peak virtual memory: 4774 megabytes
    Info: Processing ended: Mon Nov 18 00:28:41 2019
    Info: Elapsed time: 00:00:30
    Info: Total CPU time (on all processors): 00:00:48


+------------------------------------------+
; Analysis & Synthesis Suppressed Messages ;
+------------------------------------------+
The suppressed messages can be found in C:/Iteso_mario/UART/TX/Practica_3/output_files/UART.map.smsg.


